1.03
0.58
0.58
0.59
0.61
0.67
0.7
0.62
0.59
0.31
0.32
0.32
0.31
0.67
0.7
0.36
0.7
0.73
0.65
0.7
0.9
0.65
0.32
0.59
0.63
0.62
0.65
0.37
0.51
0.32
0.32
0.32
0.29
1.04
0.69
0.58
0.61
0.58
0.61
0.54
0.59
0.24
0.24
0.29
0.52
0.52
0.61
0.65
0.59
0.59
0.63
0.58
0.61
0.53
0.45
0.65
0.62
0.58
0.59
0.62
0.62
0.45
0.7
0.69
0.53
0.45
0.45
0.45
0.67
1.0
0.41
0.41
0.52
0.52
0.52
0.49
0.66
0.58
0.59
0.62
0.62
0.54
0.54
0.45
0.45
0.44
0.45
0.42
0.41
0.62
0.87
0.62
0.62
0.62
1.01
0.45
0.62
0.62
0.65
0.45
0.49
0.45
0.49
0.62
0.58
0.58
0.62
0.55
0.52
0.73
0.58
0.58
0.61
0.54
0.45
0.44
0.45
0.49
0.87
0.66
0.69
0.69
0.52
0.51
0.52
0.57
0.58
0.9
0.48
0.48
0.45
0.62
0.57
0.61
0.61
0.65
0.62
0.59
0.59
0.59
0.62
0.69
0.69
0.62
0.56
0.59
0.7
0.62
0.66
0.63
0.62
0.56
0.44
0.44
0.44
0.44
0.41
0.67
0.9
0.7
0.56
0.28
0.49
0.74
0.67
0.66
0.62
0.62
0.61
0.62
0.65
0.64
0.59
0.62
0.58
0.62
0.32
0.31
0.32
0.64
0.86
0.69
0.32
0.32
0.59
0.59
0.59
0.63
0.62
0.62
0.29
0.45
0.45
0.45
0.45
0.45
0.45
0.82
0.75
0.59
0.6
0.24
0.82
0.62
0.62
0.61
0.66
0.65
0.77
0.58
0.62
0.58
0.59
0.58
0.62
0.62
0.9
0.73
0.32
0.32
0.32
0.32
0.32
0.62
0.31
0.31
0.31
0.29
0.61
0.62
0.61
0.62
0.58
0.59
0.59
0.65
0.62
0.83
0.24
0.24
0.24
0.45
0.45
0.83
0.49
0.29
0.58
0.59
0.59
0.62
0.54
0.45
0.45
0.58
0.59
0.59
0.62
0.54
0.58
0.59
0.59
0.62
0.54
0.54
0.24
0.24
0.24
0.29
0.21
0.44
0.44
0.44
0.49
0.41
0.45
0.45
0.45
0.49
0.42
0.42
0.61
0.82
0.66
0.66
0.32
0.55
0.62
0.9
0.63
0.29
0.62
0.7
0.63
0.29
0.55
0.62
0.29
0.54
0.62
0.49
0.49
0.62
0.54
0.62
0.3
0.3
0.21
0.77
0.58
0.58
0.58
1.0
0.69
0.69
0.69
0.78
0.9
0.93
0.62
0.59
0.58
0.62
0.58
0.58
0.6
0.58
0.32
0.32
0.32
0.62
0.83
0.52
0.52
0.29
0.58
0.3
0.59
0.61
0.52
0.51
0.67
0.82
0.67
0.7
0.7
0.67
0.7
0.62
0.59
0.62
0.62
0.55
0.31
0.28
0.36
0.59
0.62
0.63
0.62
0.55
0.63
0.45
0.42
0.49
0.49
0.59
0.62
0.62
0.55
0.62
0.45
0.42
0.49
0.41
0.49
0.49
0.72
0.45
0.42
0.49
0.49
0.49
0.61
0.61
0.61
0.61
1.03
0.65
0.65
0.9
0.77
0.58
0.32
0.32
0.32
0.65
0.65
0.58
0.55
0.86
0.65
0.52
0.32
0.32
0.44
0.29
0.57
0.49
0.29
0.86
0.87
0.82
0.58
0.84
0.59
0.54
0.54
0.7
0.59
0.54
0.62
0.62
0.65
0.77
0.59
0.59
0.62
0.59
0.59
0.62
0.62
0.52
0.52
0.58
0.58
0.61
0.52
0.52
0.52
0.49
0.82
0.52
0.52
0.51
0.45
0.45
0.44
0.73
0.45
0.73
0.61
0.67
0.32
0.62
0.62
0.72
0.62
0.67
0.59
0.62
0.3
0.82
0.61
0.64
0.58
0.61
0.44
0.44
0.7
0.7
0.58
0.58
0.24
0.24
0.82
0.7
0.87
0.61
0.61
0.77
0.94
0.58
0.59
0.61
0.67
0.32
0.32
0.32
0.62
0.59
0.32
0.67
0.67
0.59
0.87
0.7
0.62
0.54
0.3
0.62
0.61
0.87
0.67
0.59
0.62
0.63
0.45
0.45
0.49
0.62
0.58
0.7
0.65
0.31
0.59
0.61
0.32
0.31
0.83
0.59
0.62
0.62
0.45
0.49
0.42
0.58
0.58
0.67
0.32
0.32
0.66
0.67
0.59
0.62
0.3
0.3
0.58
0.24
0.83
0.82
0.6
0.61
0.61
0.82
0.58
0.31
0.32
0.77
0.52
0.61
0.62
0.54
0.59
0.58
0.62
0.52
0.7
0.7
0.62
0.62
0.62
0.62
0.64
0.67
0.67
0.57
0.59
0.54
0.3
0.3
0.58
0.54
0.3
0.3
0.3
0.62
0.87
0.59
0.62
0.62
0.62
0.66
0.58
0.58
0.58
0.62
0.61
0.59
0.59
0.62
0.61
0.45
0.45
0.59
0.59
0.62
0.62
0.52
0.52
0.52
0.52
0.44
0.44
0.44
0.44
0.52
0.52
0.52
0.52
0.62
0.72
0.58
0.7
0.62
0.62
0.66
0.58
0.31
0.45
0.65
0.45
0.58
0.58
0.61
0.62
0.7
0.66
0.62
0.52
0.52
0.52
0.52
0.49
1.03
0.59
0.59
0.62
0.32
0.66
0.52
0.52
0.61
0.61
0.54
0.9
0.58
0.52
0.9
0.94
0.62
0.61
0.75
0.52
0.52
0.67
