0.69
0.69
0.69
0.69
0.69
0.69
0.69
0.76
0.69
0.69
0.69
0.69
0.69
0.76
0.69
0.69
0.69
0.69
0.76
0.76
0.61
0.69
0.69
0.76
0.69
0.76
0.69
0.76
0.69
0.69
0.69
0.76
0.76
0.69
0.69
0.69
0.69
0.69
0.69
0.69
0.69
0.69
0.69
0.69
0.69
0.69
0.69
0.69
0.69
0.69
0.69
0.69
0.69
0.69
0.76
0.69
0.69
0.76
0.69
0.69
0.69
0.76
0.76
0.69
0.61
0.76
0.69
0.69
0.69
0.69
0.69
0.69
0.69
0.69
0.69
0.69
0.69
0.69
0.69
0.69
0.76
0.69
0.69
0.69
0.69
0.69
0.76
0.76
0.69
0.76
0.69
0.76
0.69
0.69
0.69
0.69
0.69
0.69
0.69
0.69
0.69
0.69
0.69
0.76
0.76
0.76
0.69
0.69
0.69
0.69
0.69
0.69
0.69
0.69
0.61
0.69
0.69
0.34
0.34
0.69
0.69
0.69
0.69
0.69
0.69
0.53
0.69
0.69
0.69
0.69
0.69
0.69
0.69
0.69
0.69
0.69
0.69
0.69
0.69
0.69
0.69
0.69
0.69
0.76
0.76
0.69
0.76
0.53
0.69
0.69
0.69
0.69
0.76
0.69
0.76
0.76
0.69
0.69
0.69
0.69
0.69
0.69
0.53
0.69
0.69
0.69
0.69
0.69
0.69
0.69
0.69
0.69
0.76
0.76
0.69
0.53
0.69
0.61
0.69
0.69
0.69
0.69
0.69
0.69
0.76
0.69
0.76
0.69
0.53
0.69
0.69
0.69
0.69
0.76
0.69
0.69
0.76
0.69
0.69
0.81
0.81
0.81
0.81
0.81
0.81
0.81
0.81
0.89
0.81
0.89
0.84
0.81
0.81
0.81
0.81
0.87
0.91
0.93
0.81
0.84
0.89
0.84
0.91
0.81
0.84
0.81
0.81
0.93
0.91
0.81
0.84
0.84
0.81
0.84
0.81
0.81
0.81
0.81
0.81
0.81
0.84
0.84
0.81
0.81
0.84
0.84
0.91
0.81
0.91
0.84
0.81
0.81
0.89
0.93
0.91
0.89
0.81
0.81
0.81
0.91
0.81
0.84
0.84
0.84
0.84
0.89
0.84
0.84
0.84
0.81
0.84
0.81
0.81
0.81
0.81
0.89
0.81
0.91
0.81
0.91
0.81
0.84
0.81
0.81
0.87
0.81
0.89
0.84
0.81
0.81
0.91
0.81
0.81
0.91
0.84
0.81
0.91
0.81
0.84
0.81
0.81
0.81
0.77
0.81
0.81
0.81
0.81
0.81
0.81
0.84
0.81
0.87
0.84
0.84
0.81
0.81
0.81
0.84
0.81
0.81
0.81
0.81
0.81
0.81
0.81
0.81
0.81
0.81
0.81
0.81
0.84
0.89
0.84
0.81
0.84
0.91
0.81
0.81
0.84
0.91
0.81
0.84
0.81
0.81
0.81
0.91
0.84
0.84
0.81
0.81
0.89
0.84
0.84
0.81
0.87
0.81
0.81
0.81
0.81
0.84
0.81
0.81
0.89
0.84
0.81
0.89
0.93
0.81
0.77
0.89
0.89
0.81
0.84
0.81
0.84
0.81
0.87
0.84
0.87
0.84
0.84
0.84
0.91
0.84
0.81
0.41
0.15
0.15
0.15
0.17
0.2
0.22
0.17
0.15
0.08
0.09
0.09
0.08
0.2
0.22
0.11
0.22
0.23
0.18
0.22
0.28
0.18
0.09
0.16
0.17
0.17
0.18
0.11
0.11
0.09
0.09
0.09
0.08
0.42
0.22
0.14
0.16
0.14
0.16
0.11
0.15
0.06
0.06
0.07
0.19
0.19
0.17
0.18
0.16
0.16
0.17
0.14
0.16
0.11
0.14
0.18
0.17
0.15
0.15
0.16
0.17
0.14
0.25
0.24
0.11
0.14
0.14
0.14
0.23
0.38
0.12
0.12
0.2
0.2
0.2
0.17
0.22
0.15
0.15
0.17
0.16
0.12
0.12
0.14
0.14
0.13
0.14
0.13
0.12
0.16
0.29
0.16
0.16
0.16
0.4
0.14
0.16
0.16
0.16
0.14
0.17
0.14
0.17
0.18
0.15
0.15
0.17
0.12
0.19
0.23
0.14
0.14
0.16
0.11
0.14
0.13
0.14
0.17
0.29
0.2
0.22
0.22
0.19
0.18
0.19
0.23
0.14
0.28
0.12
0.12
0.11
0.17
0.24
0.16
0.16
0.17
0.16
0.16
0.16
0.16
0.17
0.24
0.24
0.17
0.12
0.15
0.25
0.17
0.19
0.17
0.17
0.12
0.13
0.13
0.13
0.13
0.12
0.23
0.28
0.25
0.12
0.08
0.17
0.29
0.23
0.22
0.17
0.17
0.17
0.17
0.18
0.18
0.15
0.17
0.14
0.16
0.09
0.08
0.09
0.18
0.34
0.22
0.09
0.09
0.16
0.16
0.16
0.17
0.17
0.17
0.08
0.14
0.14
0.14
0.14
0.14
0.14
0.24
0.24
0.16
0.16
0.06
0.24
0.17
0.18
0.16
0.19
0.17
0.2
0.14
0.16
0.15
0.15
0.15
0.16
0.16
0.28
0.23
0.09
0.09
0.09
0.09
0.09
0.17
0.1
0.1
0.1
0.08
0.17
0.17
0.17
0.17
0.15
0.15
0.15
0.18
0.16
0.32
0.06
0.06
0.06
0.14
0.14
0.32
0.17
0.08
0.15
0.15
0.15
0.17
0.12
0.14
0.14
0.15
0.15
0.15
0.16
0.12
0.15
0.15
0.15
0.16
0.12
0.12
0.06
0.06
0.06
0.08
0.06
0.14
0.14
0.14
0.16
0.12
0.14
0.14
0.14
0.17
0.13
0.13
0.17
0.24
0.2
0.2
0.09
0.12
0.16
0.29
0.17
0.08
0.16
0.22
0.17
0.08
0.12
0.16
0.08
0.11
0.16
0.17
0.17
0.17
0.11
0.16
0.09
0.09
0.05
0.2
0.14
0.14
0.14
0.38
0.24
0.24
0.24
0.26
0.29
0.31
0.17
0.15
0.15
0.16
0.14
0.14
0.16
0.14
0.09
0.09
0.09
0.17
0.32
0.19
0.19
0.08
0.14
0.09
0.15
0.17
0.19
0.18
0.2
0.3
0.21
0.23
0.23
0.2
0.22
0.16
0.15
0.17
0.16
0.12
0.1
0.09
0.12
0.16
0.17
0.17
0.17
0.12
0.17
0.14
0.13
0.17
0.17
0.15
0.17
0.16
0.12
0.16
0.14
0.13
0.17
0.12
0.17
0.17
0.22
0.14
0.13
0.17
0.17
0.17
0.17
0.17
0.17
0.17
0.41
0.18
0.18
0.29
0.2
0.15
0.09
0.09
0.09
0.18
0.16
0.13
0.12
0.34
0.18
0.19
0.09
0.09
0.13
0.08
0.24
0.17
0.08
0.33
0.29
0.3
0.14
0.33
0.15
0.12
0.12
0.23
0.15
0.12
0.17
0.17
0.18
0.2
0.15
0.15
0.17
0.16
0.16
0.17
0.17
0.2
0.19
0.14
0.14
0.16
0.2
0.2
0.19
0.17
0.3
0.19
0.19
0.18
0.14
0.14
0.13
0.23
0.14
0.23
0.16
0.2
0.09
0.17
0.17
0.17
0.17
0.2
0.15
0.17
0.09
0.24
0.16
0.17
0.14
0.16
0.14
0.14
0.25
0.25
0.14
0.14
0.06
0.06
0.24
0.22
0.29
0.16
0.16
0.2
0.32
0.15
0.15
0.17
0.2
0.09
0.09
0.09
0.17
0.15
0.09
0.2
0.2
0.15
0.29
0.22
0.17
0.12
0.09
0.17
0.16
0.29
0.2
0.16
0.17
0.17
0.14
0.14
0.17
0.17
0.14
0.25
0.16
0.1
0.15
0.17
0.09
0.08
0.32
0.15
0.16
0.17
0.14
0.17
0.13
0.14
0.14
0.2
0.09
0.09
0.2
0.2
0.15
0.17
0.09
0.09
0.14
0.06
0.32
0.3
0.16
0.16
0.16
0.24
0.14
0.08
0.09
0.2
0.19
0.16
0.17
0.13
0.15
0.14
0.16
0.2
0.25
0.25
0.17
0.17
0.17
0.17
0.18
0.2
0.2
0.13
0.15
0.12
0.09
0.09
0.14
0.11
0.09
0.09
0.09
0.17
0.29
0.15
0.17
0.17
0.17
0.19
0.14
0.14
0.14
0.16
0.16
0.15
0.15
0.17
0.17
0.14
0.14
0.15
0.15
0.16
0.17
0.19
0.19
0.19
0.19
0.14
0.14
0.14
0.14
0.2
0.2
0.2
0.2
0.17
0.17
0.14
0.25
0.17
0.18
0.19
0.14
0.1
0.14
0.16
0.14
0.14
0.14
0.16
0.16
0.25
0.19
0.16
0.19
0.19
0.19
0.19
0.17
0.41
0.15
0.15
0.17
0.09
0.17
0.2
0.19
0.16
0.16
0.13
0.28
0.14
0.19
0.29
0.32
0.17
0.17
0.24
0.2
0.19
0.2
