0.68
0.34
0.34
0.34
0.34
0.34
0.34
0.34
0.34
0.34
0.34
0.34
0.21
0.21
0.34
0.34
0.34
0.34
0.21
0.34
0.34
0.34
0.34
0.21
0.34
0.34
0.34
0.34
0.34
0.34
0.34
0.34
0.34
0.34
0.34
0.34
0.21
0.34
0.34
0.34
0.34
0.34
0.34
0.21
0.34
0.34
0.34
0.34
0.34
0.34
0.34
0.84
0.34
0.34
0.34
0.34
0.34
0.21
0.34
0.34
0.34
0.34
0.34
0.34
0.34
0.34
0.34
0.34
0.39
0.39
0.39
0.39
0.25
0.39
0.39
0.39
0.39
0.34
0.34
0.34
0.34
0.34
0.34
0.34
0.34
0.34
0.34
0.34
0.34
0.21
0.34
0.34
0.34
0.34
0.34
0.73
0.34
0.34
0.34
0.34
0.34
0.34
0.34
0.34
0.34
0.34
0.34
0.34
0.34
0.34
0.34
0.34
0.34
0.34
0.34
0.34
0.34
0.34
0.34
0.34
0.34
0.34
0.34
0.34
0.39
0.39
0.39
0.39
0.39
0.39
0.34
0.34
0.39
0.34
0.34
0.84
0.21
0.21
0.21
0.21
0.21
0.5
0.5
0.5
0.5
0.5
0.5
0.5
0.34
0.34
0.34
0.34
0.34
0.34
0.34
0.34
0.21
0.34
0.34
0.34
0.39
0.34
0.34
0.34
0.39
0.39
0.39
0.39
0.39
0.39
0.39
0.25
0.39
0.34
0.34
0.34
0.39
0.34
0.34
0.5
0.34
0.34
0.34
0.34
0.34
0.34
0.34
0.34
0.21
0.34
0.34
0.68
0.81
0.34
0.34
0.34
0.34
0.34
0.34
0.34
0.34
0.34
0.34
0.34
0.34
0.34
0.34
0.34
0.34
0.34
0.34
0.34
0.21
0.21
0.21
0.34
0.34
0.34
0.34
0.34
0.21
0.34
0.34
0.34
0.34
0.34
0.21
0.34
0.34
0.34
0.34
0.34
0.5
0.5
0.5
0.5
0.5
0.34
0.5
0.34
0.34
0.34
0.34
0.34
0.34
0.39
0.39
0.39
0.39
0.39
0.25
0.39
0.39
0.34
0.34
0.34
0.34
0.34
0.5
0.34
0.34
0.34
0.34
0.34
0.34
0.21
0.34
0.34
0.34
0.34
0.34
0.34
0.34
0.34
0.5
0.34
0.39
0.5
0.5
0.5
0.5
0.5
0.34
0.5
0.5
0.5
0.5
0.5
0.5
0.5
0.34
0.34
0.34
0.34
0.34
0.34
0.34
0.5
0.34
0.5
0.34
0.34
0.34
0.34
0.34
0.61
0.61
0.61
0.61
0.61
0.34
0.34
0.61
0.5
0.68
0.21
0.21
0.21
0.34
0.55
0.55
0.55
0.55
0.55
0.55
0.39
0.34
0.34
0.34
0.34
0.34
0.34
0.21
0.34
0.34
0.34
0.61
0.5
0.34
0.34
0.34
0.34
0.34
0.34
0.34
0.21
0.34
0.21
0.21
0.21
0.44
0.34
0.39
0.21
0.61
0.61
0.61
0.61
0.61
0.61
0.44
0.61
0.44
0.34
0.34
0.34
0.61
0.5
0.55
0.34
0.34
0.34
0.34
0.34
0.34
0.34
0.34
0.21
0.34
0.21
0.34
0.34
0.34
0.34
0.5
0.5
0.5
0.34
0.34
0.34
0.68
0.34
0.5
0.39
0.39
0.39
0.39
0.34
0.34
0.5
0.34
0.34
0.34
0.34
0.34
0.21
0.25
0.21
0.34
0.5
0.5
0.5
0.5
0.5
0.34
0.34
0.39
0.34
0.5
0.34
0.81
0.39
0.39
0.39
0.39
0.39
0.25
0.39
0.34
0.39
0.34
0.5
0.34
0.5
0.5
0.5
0.5
0.5
0.5
0.34
0.5
0.5
0.21
0.25
0.21
0.34
0.21
0.34
0.25
0.87
0.55
0.55
0.55
0.55
0.55
0.39
0.55
0.55
0.39
0.34
0.39
0.34
0.5
0.34
0.5
0.39
0.5
0.44
0.44
0.44
0.44
0.44
0.29
0.44
0.44
0.29
0.44
0.34
0.39
0.34
0.5
0.34
0.5
0.39
0.5
0.55
0.5
0.5
0.5
0.5
0.5
0.34
0.5
0.5
0.34
0.5
0.5
0.34
0.34
0.34
0.34
0.34
0.34
0.39
0.39
0.39
0.39
0.34
0.34
0.34
0.34
0.34
0.34
0.34
0.34
0.34
0.34
0.34
0.34
0.34
0.34
0.39
0.34
0.34
0.34
0.39
0.34
0.34
0.61
0.61
0.61
0.61
0.61
0.61
0.61
0.55
0.55
0.55
0.55
0.55
0.55
0.55
0.34
0.39
0.34
0.34
0.34
0.55
0.34
0.39
0.34
0.34
0.34
0.61
0.34
0.34
0.34
0.34
0.34
0.34
0.34
0.34
0.34
0.5
0.5
0.5
0.5
0.5
0.5
0.5
0.5
0.5
0.21
0.25
0.21
0.21
0.21
0.44
0.39
0.21
0.55
0.55
0.55
0.55
0.55
0.55
0.55
0.55
0.55
0.39
0.21
0.25
0.21
0.21
0.21
0.44
0.39
0.34
0.21
0.34
0.34
0.34
0.34
0.34
0.34
0.34
0.34
0.34
0.21
0.21
0.34
0.34
0.34
0.34
0.34
0.34
0.34
0.34
0.55
0.55
0.55
0.55
0.34
0.34
0.34
0.34
0.21
0.84
0.21
0.21
0.55
0.34
0.34
0.39
0.39
0.39
0.39
0.25
0.39
0.34
0.34
0.34
0.34
0.21
0.34
0.55
0.34
0.34
0.34
0.34
0.55
0.34
0.39
0.34
0.34
0.77
0.39
0.39
0.39
0.39
0.25
0.39
0.39
0.39
0.5
0.5
0.5
0.5
0.34
0.5
0.5
0.5
0.55
0.34
0.39
0.34
0.34
0.34
0.5
0.39
0.21
0.25
0.21
0.21
0.21
0.25
0.34
0.34
0.34
0.34
0.21
0.34
0.34
0.34
0.34
0.21
0.44
0.44
0.44
0.44
0.29
0.44
0.44
0.44
0.44
0.29
0.39
0.21
0.25
0.21
0.21
0.21
0.25
0.34
0.21
0.34
0.34
0.34
0.34
0.21
0.34
0.34
0.34
0.34
0.21
0.21
0.81
0.81
0.5
0.5
0.5
0.5
0.34
0.34
0.34
0.34
0.34
0.34
0.34
0.34
0.34
0.34
0.34
0.34
0.34
0.34
0.5
0.34
0.34
0.5
0.34
0.34
0.5
0.34
0.34
0.34
0.34
0.34
0.34
0.34
0.34
0.34
0.34
0.34
0.34
0.34
0.34
0.34
0.34
0.34
0.34
0.34
0.34
0.34
0.34
0.34
0.34
0.34
0.34
0.5
0.34
0.34
0.34
0.34
0.34
0.5
0.34
0.34
0.34
0.34
0.34
0.5
0.34
0.34
0.34
0.34
0.34
0.34
0.34
0.34
0.34
0.34
0.34
0.34
0.34
0.34
0.34
0.34
0.34
0.34
0.34
0.34
0.39
0.39
0.39
0.39
0.39
0.39
0.39
0.39
0.39
0.39
0.34
0.34
0.34
0.34
0.34
0.34
0.5
0.34
0.34
0.34
0.34
0.34
0.34
0.34
0.34
0.34
0.34
0.34
0.34
0.34
0.68
0.84
0.34
0.34
0.34
0.34
0.34
0.34
0.34
0.34
0.34
0.34
0.34
0.34
0.34
0.34
0.34
0.34
0.34
0.34
0.39
0.39
0.39
0.39
0.39
0.39
0.34
0.34
0.34
0.34
0.34
0.34
0.39
0.39
0.39
0.39
0.39
0.39
0.34
0.39
0.34
0.34
0.34
0.25
0.25
0.84
0.21
0.21
0.21
0.39
0.34
0.34
0.34
0.34
0.34
0.34
0.34
0.34
0.34
0.34
0.34
0.21
0.34
0.34
0.34
0.34
0.34
0.34
0.34
0.34
0.21
0.34
0.34
0.34
0.34
0.34
0.34
0.34
0.34
0.21
0.34
0.39
0.34
0.39
0.34
0.34
0.34
0.34
0.34
0.39
0.39
0.39
0.39
0.39
0.39
0.39
0.25
0.39
0.39
0.39
0.34
0.39
0.34
0.34
0.34
0.34
0.34
0.34
0.34
0.34
0.34
0.34
0.34
0.34
0.34
0.21
0.34
0.34
0.34
0.68
0.84
0.34
0.34
0.34
0.34
0.34
0.34
0.34
0.34
0.34
0.34
0.34
0.34
0.39
0.39
0.39
0.39
0.21
0.25
0.21
0.34
0.39
0.73
0.34
0.34
0.34
0.84
0.34
0.55
0.55
0.55
0.55
0.39
0.55
0.55
0.39
0.39
0.39
0.39
0.25
0.39
0.39
0.55
0.55
0.55
0.55
0.39
0.55
0.55
0.21
0.21
0.25
0.25
0.39
0.21
0.34
0.34
0.39
0.55
0.55
0.34
0.34
0.34
0.39
0.55
0.39
0.34
0.34
0.34
0.34
0.34
0.21
0.34
0.34
0.21
0.34
0.34
0.39
0.39
0.39
0.39
0.25
0.39
0.39
0.25
0.39
0.39
0.39
0.39
0.39
0.39
0.25
0.39
0.39
0.25
0.39
0.39
0.21
0.21
0.25
0.39
0.25
0.39
0.21
0.25
0.21
0.34
0.34
0.39
0.55
0.39
0.55
0.34
0.39
0.34
0.5
0.5
0.5
0.5
0.34
0.5
0.5
0.34
0.5
0.5
0.34
0.5
0.34
0.34
0.34
0.34
0.21
0.34
0.34
0.21
0.34
0.34
0.21
0.34
0.34
0.34
0.34
0.34
0.34
0.34
0.55
0.55
0.55
0.55
0.81
0.34
0.34
0.34
0.39
0.39
0.39
0.39
0.39
0.34
0.34
0.34
0.34
0.34
0.34
0.55
0.34
0.34
0.91
0.34
0.55
0.39
0.34
0.34
0.34
0.34
0.34
0.34
0.34
0.34
0.34
0.34
0.34
0.34
0.34
0.34
0.34
0.34
0.55
0.39
0.34
0.34
0.34
0.55
0.55
0.55
0.55
0.55
0.55
0.55
0.55
0.34
0.55
0.39
0.34
0.34
0.34
0.34
0.34
0.34
0.34
0.34
0.34
0.34
0.34
0.34
0.34
0.34
0.55
0.39
0.34
0.34
0.34
0.55
0.34
0.5
0.5
0.5
0.5
0.5
0.5
0.5
0.5
0.5
0.5
0.34
0.55
0.39
0.34
0.34
0.34
0.55
0.34
0.34
0.61
0.61
0.61
0.61
0.61
0.61
0.61
0.61
0.61
0.61
0.61
0.34
0.55
0.39
0.34
0.34
0.34
0.55
0.34
0.34
0.5
0.34
0.34
0.34
0.34
0.34
0.34
0.34
0.34
0.34
0.34
0.34
0.34
0.68
0.55
0.55
0.34
0.34
0.34
0.39
0.73
0.5
0.5
0.5
0.34
0.34
0.34
0.34
0.21
0.55
0.34
0.34
0.55
0.34
0.5
0.34
0.34
0.34
0.21
0.34
0.34
0.39
0.39
0.39
0.25
0.39
0.39
0.55
0.34
0.5
0.34
0.39
0.39
0.21
0.34
0.21
0.21
0.34
0.34
0.34
0.21
0.34
0.34
0.34
0.21
0.34
0.34
0.34
0.21
0.34
0.34
0.34
0.21
0.55
0.34
0.5
0.34
0.34
0.39
0.34
0.55
0.55
0.55
0.39
0.55
0.55
0.55
0.39
0.55
0.55
0.34
0.5
0.34
0.34
0.39
0.34
0.34
0.34
0.34
0.34
0.21
0.34
0.34
0.34
0.21
0.34
0.34
0.55
0.34
0.5
0.34
0.34
0.39
0.34
0.55
0.34
0.39
0.39
0.39
0.25
0.39
0.39
0.39
0.25
0.39
0.39
0.39
0.55
0.34
0.5
0.34
0.34
0.39
0.34
0.55
0.34
0.34
0.34
0.34
0.34
0.21
0.34
0.34
0.34
0.21
0.34
0.34
0.34
0.34
0.84
0.73
0.34
0.34
0.34
0.34
0.34
0.34
0.34
0.34
0.34
0.34
0.34
0.34
0.34
0.34
0.34
0.34
0.34
0.34
0.34
0.34
0.34
0.34
0.34
0.34
0.39
0.39
0.39
0.39
0.39
0.39
0.39
0.39
0.39
0.39
0.39
0.39
0.39
0.34
0.34
0.34
0.34
0.39
0.73
0.34
0.34
0.34
0.34
0.39
0.39
0.39
0.39
0.39
0.39
0.39
0.39
0.55
0.55
0.55
0.55
0.55
0.55
0.55
0.55
0.25
0.25
0.39
0.21
0.21
0.21
0.21
0.25
0.25
0.25
0.21
0.21
0.21
0.21
0.84
0.34
0.34
0.34
0.34
0.34
0.34
0.34
0.34
0.21
0.21
0.39
0.39
0.39
0.39
0.39
0.39
0.39
0.39
0.25
0.25
0.25
0.25
0.25
0.39
0.21
0.21
0.21
0.21
0.21
0.55
0.55
0.55
0.55
0.55
0.55
0.55
0.55
0.39
0.39
0.39
0.25
0.25
0.25
0.39
0.21
0.21
0.21
0.21
0.25
0.21
0.34
0.34
0.34
0.34
0.34
0.34
0.34
0.34
0.21
0.21
0.21
0.21
0.77
0.39
0.39
0.39
0.44
0.44
0.44
0.5
0.5
0.5
0.44
0.5
0.91
0.25
0.34
0.39
0.44
0.39
0.39
0.39
0.39
0.25
0.39
0.34
0.34
0.34
0.34
0.21
0.34
0.39
0.39
0.39
0.39
0.25
0.39
0.39
0.44
0.5
0.39
0.34
0.39
0.44
0.5
0.39
0.89
0.34
0.55
0.55
0.55
0.55
0.39
0.55
0.55
0.55
0.39
0.39
0.39
0.39
0.25
0.39
0.39
0.39
0.39
0.44
0.5
0.39
0.39
0.39
0.34
0.39
0.44
0.5
0.39
0.39
0.55
0.34
0.5
0.5
0.5
0.5
0.34
0.5
0.5
0.5
0.5
0.5
0.5
0.5
0.5
0.5
0.34
0.5
0.5
0.5
0.5
0.5
0.39
0.44
0.5
0.39
0.39
0.55
0.39
0.34
0.5
0.34
0.34
0.34
0.34
0.21
0.34
0.34
0.34
0.34
0.34
0.34
0.39
0.44
0.5
0.39
0.39
0.55
0.39
0.34
0.5
0.5
0.34
0.34
0.34
0.34
0.21
0.34
0.34
0.34
0.34
0.34
0.34
0.34
0.39
0.34
0.34
0.39
0.34
0.34
0.34
0.39
0.34
0.34
0.34
0.34
0.34
0.39
0.34
0.34
0.91
0.34
0.34
0.34
0.34
0.34
0.39
0.34
0.34
0.34
0.55
0.55
0.55
0.55
0.55
0.55
0.39
0.34
0.34
0.34
0.34
0.5
0.5
0.5
0.5
0.5
0.5
0.5
0.39
0.34
0.34
0.34
0.34
0.55
0.34
0.34
0.34
0.34
0.34
0.34
0.34
0.34
0.39
0.34
0.34
0.34
0.34
0.55
0.5
0.55
0.55
0.55
0.55
0.55
0.55
0.55
0.55
0.55
0.39
0.34
0.34
0.34
0.34
0.55
0.5
0.34
0.34
0.34
0.34
0.34
0.34
0.34
0.34
0.34
0.34
0.34
0.39
0.34
0.34
0.34
0.34
0.55
0.5
0.34
0.55
0.84
0.55
0.55
0.55
0.55
0.55
0.55
0.55
0.55
0.55
0.55
0.55
0.39
0.34
0.34
0.34
0.34
0.55
0.5
0.34
0.55
0.34
0.39
0.39
0.39
0.39
0.39
0.39
0.39
0.39
0.39
0.39
0.39
0.39
0.39
0.34
0.34
0.34
0.34
0.55
0.5
0.34
0.55
0.34
0.55
0.5
0.5
0.5
0.5
0.5
0.5
0.5
0.5
0.5
0.5
0.5
0.5
0.5
0.73
0.73
0.73
0.5
0.5
0.5
0.5
0.5
0.34
0.34
0.34
0.34
0.34
0.39
0.39
0.39
0.39
0.39
0.39
0.39
0.39
0.39
0.39
0.34
0.34
0.34
0.34
0.34
0.39
0.39
0.34
0.5
0.34
0.39
0.34
0.5
0.21
0.25
0.21
0.34
0.34
0.39
0.39
0.5
0.34
0.34
0.34
0.34
0.34
0.34
0.34
0.21
0.34
0.39
0.39
0.39
0.39
0.39
0.39
0.39
0.25
0.39
0.39
0.39
0.39
0.39
0.39
0.39
0.39
0.25
0.39
0.44
0.44
0.44
0.44
0.44
0.44
0.44
0.29
0.44
0.34
0.39
0.39
0.34
0.39
0.39
0.44
0.5
0.21
0.25
0.25
0.21
0.21
0.25
0.29
0.34
0.21
0.25
0.25
0.21
0.21
0.25
0.29
0.34
0.34
0.39
0.39
0.34
0.34
0.39
0.39
0.5
0.34
0.34
0.34
0.34
0.34
0.34
0.34
0.21
0.34
0.34
0.21
0.21
0.34
0.34
0.34
0.34
0.34
0.34
0.34
0.34
0.21
0.34
0.34
0.21
0.21
0.34
0.34
0.34
0.34
0.34
0.34
0.34
0.34
0.21
0.34
0.34
0.21
0.21
0.34
0.34
0.34
0.34
0.34
0.34
0.34
0.34
0.21
0.34
0.34
0.21
0.21
0.34
0.84
0.81
0.34
0.34
0.39
0.39
0.39
0.34
0.68
0.5
0.5
0.5
0.5
0.34
0.34
0.34
0.34
0.34
0.39
0.34
0.34
0.39
0.5
0.89
0.39
0.39
0.39
0.39
0.39
0.39
0.34
0.34
0.34
0.34
0.34
0.34
0.34
0.39
0.5
0.34
0.34
0.89
0.21
0.25
0.34
0.21
0.25
0.34
0.34
0.34
0.34
0.34
0.34
0.34
0.21
0.5
0.5
0.5
0.5
0.5
0.5
0.5
0.34
0.34
0.39
0.5
0.34
0.39
0.34
0.5
0.84
0.34
0.39
0.5
0.34
0.39
0.34
0.34
0.5
0.5
0.5
0.5
0.5
0.5
0.5
0.34
0.5
0.5
0.34
0.34
0.34
0.34
0.34
0.34
0.34
0.21
0.34
0.34
0.34
0.39
0.5
0.34
0.39
0.34
0.34
0.5
0.34
0.34
0.39
0.5
0.34
0.39
0.34
0.34
0.5
0.5
0.39
0.39
0.39
0.39
0.39
0.39
0.39
0.25
0.39
0.39
0.39
0.39
0.34
0.34
0.34
0.34
0.34
0.34
0.34
0.21
0.34
0.34
0.34
0.34
0.34
0.39
0.5
0.34
0.39
0.34
0.34
0.5
0.5
0.34
0.34
0.34
0.34
0.34
0.34
0.34
0.34
0.34
0.21
0.34
0.34
0.34
0.34
0.34
0.84
0.5
0.5
0.5
0.55
0.55
0.55
0.34
0.34
0.34
0.34
0.5
0.55
0.5
0.55
0.55
0.55
0.55
0.55
0.34
0.34
0.34
0.34
0.34
0.39
0.21
0.21
0.34
0.55
0.34
0.55
0.5
0.34
0.34
0.34
0.34
0.34
0.21
0.34
0.55
0.55
0.55
0.55
0.55
0.39
0.55
0.55
0.34
0.55
0.34
0.5
0.34
0.39
0.39
0.39
0.39
0.39
0.25
0.39
0.39
0.55
0.34
0.55
0.34
0.5
0.55
0.34
0.34
0.34
0.34
0.34
0.34
0.21
0.34
0.34
0.34
0.55
0.34
0.55
0.34
0.5
0.55
0.39
0.34
0.84
0.55
0.55
0.55
0.55
0.55
0.39
0.55
0.55
0.55
0.55
0.55
0.34
0.55
0.34
0.5
0.55
0.39
0.34
0.34
0.84
0.39
0.39
0.39
0.39
0.39
0.25
0.39
0.39
0.39
0.39
0.39
0.55
0.34
0.55
0.34
0.5
0.55
0.39
0.34
0.34
0.55
0.39
0.39
0.39
0.39
0.39
0.25
0.39
0.39
0.39
0.39
0.39
0.39
0.55
0.34
0.55
0.34
0.5
0.55
0.39
0.34
0.34
0.55
0.39
0.34
0.34
0.34
0.34
0.34
0.21
0.34
0.34
0.34
0.34
0.34
0.34
0.34
0.34
0.34
0.34
0.34
0.34
0.55
0.55
0.55
0.21
0.21
0.34
0.34
0.34
0.21
0.34
0.84
0.34
0.34
0.34
0.39
0.39
0.39
0.34
0.34
0.34
0.34
0.34
0.34
0.34
0.34
0.5
0.5
0.21
0.44
0.44
0.29
0.34
0.21
0.34
0.34
0.21
0.21
0.34
0.34
0.34
0.34
0.34
0.34
0.34
0.34
0.34
0.34
0.34
0.34
0.34
0.34
0.84
0.34
0.34
0.34
0.34
0.34
0.39
0.39
0.39
0.34
0.34
0.34
0.34
0.34
0.34
0.73
0.34
0.34
0.34
0.34
0.34
0.34
0.34
0.34
0.34
0.34
0.34
0.34
0.39
0.39
0.39
0.39
0.21
0.21
0.21
0.34
0.34
0.34
0.34
0.21
0.34
0.34
0.34
0.34
0.81
0.34
0.34
0.34
0.34
0.34
0.34
0.34
0.34
0.34
0.34
0.34
0.34
0.34
0.34
0.34
0.34
0.34
0.68
0.81
0.34
0.34
0.34
0.34
0.81
0.21
0.34
0.34
0.21
0.34
0.34
0.34
0.34
0.21
0.34
0.34
0.34
0.34
0.34
0.34
0.21
0.34
0.34
0.39
0.39
0.34
0.34
0.34
0.39
0.34
0.34
0.34
0.34
0.61
0.61
0.61
0.61
0.25
0.21
0.21
0.34
0.34
0.34
0.34
0.21
0.34
0.34
0.55
0.55
0.21
0.39
0.39
0.25
0.55
0.34
0.34
0.34
0.21
0.34
0.55
0.39
0.34
0.5
0.5
0.34
0.5
0.5
0.68
0.34
0.34
0.34
0.34
0.68
0.21
0.34
0.34
0.21
0.34
0.34
0.84
0.34
0.34
0.21
0.34
0.21
0.21
0.21
0.39
0.39
0.25
0.39
0.25
0.34
0.34
0.34
0.34
0.34
0.34
0.21
0.34
0.21
0.34
0.73
0.34
0.34
0.34
0.34
0.34
0.34
0.39
0.39
0.39
0.39
0.34
0.34
0.34
0.34
0.34
0.34
0.34
0.34
0.39
0.39
0.39
0.39
0.39
0.21
0.25
0.21
0.21
0.34
0.34
0.34
0.34
0.34
0.21
0.73
0.34
0.34
0.39
0.39
0.39
0.21
0.34
0.34
0.34
0.21
0.34
0.34
0.34
0.21
0.34
0.39
0.34
0.34
0.34
0.34
0.21
0.34
0.34
0.39
0.34
0.34
0.34
0.34
0.34
0.21
0.34
0.34
0.34
0.34
0.34
0.34
0.34
0.34
0.34
0.34
0.34
0.34
0.84
0.34
0.34
0.34
0.34
0.34
0.34
0.34
0.39
0.39
0.39
0.39
0.39
0.34
0.34
0.34
0.34
0.34
0.34
0.34
0.34
0.34
0.34
0.68
0.34
0.34
0.34
0.34
0.34
0.34
0.34
0.34
0.21
0.21
0.34
0.34
0.34
0.21
0.34
0.34
0.34
0.34
0.34
0.34
0.21
0.34
0.34
0.34
0.34
0.34
0.34
0.34
0.34
0.21
0.34
0.34
0.68
0.34
0.34
0.34
0.34
0.34
0.34
0.34
0.34
0.34
0.34
0.34
0.34
0.34
0.34
0.21
0.21
0.21
0.34
0.34
0.34
0.39
0.39
0.39
0.39
0.25
0.39
0.34
0.34
0.34
0.34
0.21
0.34
0.34
0.34
0.34
0.34
0.34
0.34
0.34
0.34
0.34
0.21
0.34
0.34
0.34
0.34
0.5
0.5
0.34
0.55
0.55
0.55
0.34
0.21
0.34
0.34
0.34
0.21
0.5
0.55
0.34
0.84
0.39
0.39
0.39
0.25
0.39
0.5
0.55
0.34
0.34
0.39
0.39
0.39
0.25
0.39
0.39
0.5
0.55
0.34
0.34
0.39
0.5
0.5
0.5
0.34
0.5
0.5
0.5
0.55
0.34
0.34
0.55
0.34
0.34
0.34
0.55
0.34
0.81
0.39
0.39
0.39
0.39
0.55
0.34
0.34
0.34
0.34
0.34
0.34
0.34
0.55
0.34
0.34
0.39
0.55
0.55
0.55
0.55
0.55
0.55
0.55
0.34
0.34
0.39
0.34
0.34
0.34
0.34
0.34
0.34
0.34
0.34
0.34
0.34
0.34
0.34
0.34
0.39
0.39
0.39
0.34
0.34
0.34
0.34
0.34
0.34
0.34
0.39
0.34
0.34
0.34
0.34
0.34
0.34
0.34
0.39
0.34
0.34
0.34
0.34
0.34
0.34
0.34
0.34
0.34
0.39
0.34
0.34
0.34
0.5
0.5
0.5
0.5
0.5
0.5
0.5
0.55
0.39
0.39
0.55
0.91
0.39
0.39
0.39
0.55
0.39
0.81
0.55
0.55
0.55
0.55
0.55
0.39
0.39
0.91
0.34
0.34
0.34
0.34
0.34
0.55
0.39
0.39
0.55
0.55
0.55
0.55
0.55
0.55
0.55
0.55
0.39
0.39
0.55
0.34
0.5
0.5
0.5
0.5
0.5
0.5
0.5
0.68
0.34
0.34
0.34
0.34
0.34
0.34
0.34
0.34
0.34
0.34
0.34
0.21
0.73
0.21
0.34
0.34
0.34
0.34
0.21
0.5
0.5
0.5
0.5
0.34
0.34
0.34
0.5
0.34
0.34
0.34
0.34
0.34
0.34
0.34
0.34
0.34
0.21
0.34
0.34
0.39
0.39
0.39
0.39
0.25
0.39
0.39
0.21
0.21
0.21
0.34
0.21
0.21
0.34
0.34
0.34
0.34
0.21
0.34
0.34
0.21
0.84
0.39
0.39
0.39
0.39
0.39
0.39
0.39
0.39
0.39
0.39
0.39
0.39
0.39
0.39
0.39
0.34
0.34
0.34
0.34
0.34
0.34
0.34
0.34
0.34
0.34
0.34
0.34
0.34
0.34
0.34
0.34
0.34
0.34
0.39
0.39
0.39
0.34
0.34
0.61
0.61
0.61
0.61
0.61
0.61
0.61
0.25
0.25
0.25
0.21
0.21
0.21
0.34
0.34
0.34
0.34
0.34
0.34
0.34
0.21
0.34
0.34
0.34
0.34
0.34
0.34
0.34
0.34
0.34
0.34
0.34
0.34
0.34
0.34
0.34
0.34
0.34
0.34
0.5
0.5
0.5
0.5
0.5
0.34
0.34
0.34
0.5
0.34
0.34
0.34
0.34
0.34
0.34
0.34
0.34
0.34
0.34
0.5
0.39
0.39
0.39
0.39
0.39
0.39
0.39
0.34
0.34
0.34
0.34
0.34
0.5
0.34
0.34
0.34
0.34
0.34
0.34
0.34
0.34
0.68
0.34
0.34
0.34
0.34
0.34
0.34
0.34
0.34
0.34
0.34
0.34
0.34
0.34
0.34
0.34
0.34
0.34
0.34
0.34
0.34
0.34
0.34
0.34
0.34
0.34
0.84
0.34
0.34
0.34
0.34
0.34
0.34
0.34
0.34
0.34
0.34
0.21
0.21
0.21
0.21
0.21
0.39
0.39
0.39
0.39
0.39
0.39
0.25
0.34
0.34
0.34
0.34
0.34
0.34
0.34
0.34
0.34
0.34
0.34
0.34
0.21
0.34
0.34
0.34
0.5
0.5
0.5
0.34
0.34
0.34
0.34
0.34
0.39
0.39
0.39
0.39
0.34
0.5
0.34
0.34
0.34
0.34
0.34
0.34
0.34
0.5
0.39
0.34
0.5
0.5
0.5
0.5
0.5
0.5
0.34
0.5
0.39
0.34
0.34
0.61
0.61
0.61
0.61
0.61
0.61
0.61
0.34
0.5
0.39
0.34
0.34
0.5
0.34
0.34
0.34
0.34
0.34
0.34
0.34
0.34
0.91
0.84
0.87
0.34
0.34
0.34
0.34
0.34
0.34
0.34
0.34
0.55
0.55
0.55
0.55
0.55
0.55
0.55
0.55
0.55
0.55
0.34
0.34
0.55
0.34
0.21
0.39
0.21
0.44
0.44
0.44
0.44
0.44
0.44
0.29
0.44
0.44
0.44
0.44
0.44
0.44
0.29
0.34
0.34
0.34
0.34
0.34
0.34
0.21
0.21
0.39
0.39
0.29
0.21
0.21
0.34
0.55
0.55
0.44
0.34
0.34
0.34
0.34
0.34
0.34
0.34
0.34
0.21
0.21
0.34
0.34
0.34
0.34
0.34
0.34
0.34
0.21
0.21
0.34
0.91
0.5
0.5
0.5
0.5
0.5
0.5
0.55
0.55
0.55
0.55
0.5
0.5
0.5
0.5
0.5
0.5
0.5
0.34
0.34
0.39
0.34
0.34
0.34
0.34
0.34
0.21
0.39
0.39
0.39
0.39
0.39
0.25
0.5
0.5
0.55
0.5
0.34
0.34
0.34
0.34
0.34
0.34
0.21
0.34
0.5
0.5
0.55
0.5
0.39
0.34
0.39
0.39
0.39
0.39
0.39
0.25
0.39
0.39
0.5
0.5
0.55
0.5
0.39
0.34
0.34
0.34
0.34
0.34
0.34
0.34
0.21
0.34
0.34
0.34
0.73
0.84
0.39
0.39
0.39
0.34
0.34
0.34
0.44
0.44
0.44
0.21
0.29
0.39
0.44
0.39
0.34
0.39
0.39
0.39
0.25
0.39
0.39
0.39
0.39
0.39
0.25
0.39
0.39
0.5
0.5
0.5
0.34
0.5
0.5
0.39
0.34
0.44
0.39
0.5
0.39
0.34
0.44
0.39
0.5
0.5
0.5
0.5
0.34
0.5
0.5
0.5
0.5
0.44
0.44
0.44
0.29
0.44
0.44
0.44
0.44
0.39
0.34
0.44
0.39
0.39
0.5
0.5
0.34
0.34
0.34
0.21
0.34
0.34
0.34
0.34
0.34
0.84
0.73
0.39
0.39
0.39
0.39
0.39
0.39
0.39
0.39
0.39
0.39
0.39
0.39
0.39
0.39
0.39
0.73
0.39
0.39
0.39
0.39
0.39
0.39
0.5
0.5
0.5
0.5
0.5
0.5
0.39
0.39
0.39
0.39
0.39
0.39
0.25
0.25
0.25
0.25
0.34
0.39
0.39
0.39
0.39
0.5
0.34
0.34
0.34
0.34
0.34
0.34
0.21
0.34
0.39
0.39
0.39
0.39
0.39
0.39
0.25
0.39
0.25
0.25
0.25
0.25
0.25
0.34
0.21
0.5
0.5
0.5
0.5
0.5
0.5
0.34
0.5
0.34
0.84
0.73
0.34
0.34
0.34
0.34
0.39
0.39
0.39
0.39
0.39
0.39
0.39
0.39
0.55
0.55
0.55
0.55
0.39
0.55
0.34
0.25
0.39
0.21
0.39
0.39
0.34
0.34
0.34
0.34
0.34
0.34
0.21
0.34
0.34
0.34
0.34
0.34
0.34
0.21
0.34
0.39
0.39
0.39
0.39
0.39
0.25
0.39
0.39
0.39
0.55
0.34
0.34
0.34
0.34
0.34
0.34
0.34
0.34
0.21
0.34
0.34
0.39
0.39
0.55
0.39
0.34
0.34
0.34
0.34
0.34
0.34
0.34
0.34
0.21
0.34
0.34
0.34
